[gd_scene load_steps=23 format=3 uid="uid://ddd82qrcmd7gt"]

[ext_resource type="PackedScene" uid="uid://bwk6bh0chqfbe" path="res://Enemies/enemy.tscn" id="1_yocom"]
[ext_resource type="Texture2D" uid="uid://cgk03sn7d4pbg" path="res://Arts/enemies/flying creature/fly_anim_spritesheet.png" id="2_h473p"]
[ext_resource type="Script" path="res://Enemies/FlyingCreature/FlyingCreature.gd" id="2_i12vf"]
[ext_resource type="Texture2D" uid="uid://vkg5enm68tud" path="res://effects (new)/enemy_afterdead_explosion_anim_spritesheet.png" id="2_ra05l"]
[ext_resource type="Script" path="res://Enemies/FlyingCreature/FlyingCreatureFSM.gd" id="3_n3eyt"]
[ext_resource type="Script" path="res://Hitbox.gd" id="6_8kdxb"]

[sub_resource type="AtlasTexture" id="AtlasTexture_d8pem"]
atlas = ExtResource("2_ra05l")
region = Rect2(0, 0, 16, 16)

[sub_resource type="AtlasTexture" id="AtlasTexture_kdsux"]
atlas = ExtResource("2_ra05l")
region = Rect2(16, 0, 16, 16)

[sub_resource type="AtlasTexture" id="AtlasTexture_qv4ik"]
atlas = ExtResource("2_ra05l")
region = Rect2(32, 0, 16, 16)

[sub_resource type="AtlasTexture" id="AtlasTexture_d3ru1"]
atlas = ExtResource("2_ra05l")
region = Rect2(48, 0, 16, 16)

[sub_resource type="AtlasTexture" id="AtlasTexture_76yrv"]
atlas = ExtResource("2_h473p")
region = Rect2(0, 0, 16, 16)

[sub_resource type="AtlasTexture" id="AtlasTexture_0wd05"]
atlas = ExtResource("2_h473p")
region = Rect2(16, 0, 16, 16)

[sub_resource type="AtlasTexture" id="AtlasTexture_lc4qr"]
atlas = ExtResource("2_h473p")
region = Rect2(32, 0, 16, 16)

[sub_resource type="AtlasTexture" id="AtlasTexture_7ty77"]
atlas = ExtResource("2_h473p")
region = Rect2(48, 0, 16, 16)

[sub_resource type="SpriteFrames" id="SpriteFrames_o8g5r"]
animations = [{
"frames": [{
"duration": 1.0,
"texture": SubResource("AtlasTexture_d8pem")
}, {
"duration": 1.0,
"texture": SubResource("AtlasTexture_kdsux")
}, {
"duration": 1.0,
"texture": SubResource("AtlasTexture_qv4ik")
}, {
"duration": 1.0,
"texture": SubResource("AtlasTexture_d3ru1")
}],
"loop": true,
"name": &"dead",
"speed": 5.0
}, {
"frames": [{
"duration": 1.0,
"texture": SubResource("AtlasTexture_76yrv")
}, {
"duration": 1.0,
"texture": SubResource("AtlasTexture_0wd05")
}, {
"duration": 1.0,
"texture": SubResource("AtlasTexture_lc4qr")
}, {
"duration": 1.0,
"texture": SubResource("AtlasTexture_7ty77")
}],
"loop": true,
"name": &"default",
"speed": 5.0
}]

[sub_resource type="CircleShape2D" id="CircleShape2D_two0g"]
radius = 7.13189

[sub_resource type="CircleShape2D" id="CircleShape2D_3k4my"]
radius = 8.0

[sub_resource type="Animation" id="Animation_u3ca8"]
length = 0.001
tracks/0/type = "value"
tracks/0/imported = false
tracks/0/enabled = true
tracks/0/path = NodePath("../AnimatedSprite2D:frame")
tracks/0/interp = 1
tracks/0/loop_wrap = true
tracks/0/keys = {
"times": PackedFloat32Array(0),
"transitions": PackedFloat32Array(1),
"update": 1,
"values": [1]
}
tracks/1/type = "value"
tracks/1/imported = false
tracks/1/enabled = true
tracks/1/path = NodePath("../AnimatedSprite2D:self_modulate")
tracks/1/interp = 1
tracks/1/loop_wrap = true
tracks/1/keys = {
"times": PackedFloat32Array(0),
"transitions": PackedFloat32Array(1),
"update": 0,
"values": [Color(1, 1, 1, 1)]
}
tracks/2/type = "value"
tracks/2/imported = false
tracks/2/enabled = true
tracks/2/path = NodePath("../Hitbox/CollisionShape2D:disabled")
tracks/2/interp = 1
tracks/2/loop_wrap = true
tracks/2/keys = {
"times": PackedFloat32Array(0),
"transitions": PackedFloat32Array(1),
"update": 1,
"values": [true]
}

[sub_resource type="Animation" id="Animation_rkrji"]
resource_name = "dead"
tracks/0/type = "value"
tracks/0/imported = false
tracks/0/enabled = true
tracks/0/path = NodePath("../AnimatedSprite2D:animation")
tracks/0/interp = 1
tracks/0/loop_wrap = true
tracks/0/keys = {
"times": PackedFloat32Array(0),
"transitions": PackedFloat32Array(1),
"update": 1,
"values": [&"dead"]
}
tracks/1/type = "value"
tracks/1/imported = false
tracks/1/enabled = true
tracks/1/path = NodePath("../AnimatedSprite2D:frame")
tracks/1/interp = 1
tracks/1/loop_wrap = true
tracks/1/keys = {
"times": PackedFloat32Array(0.1, 0.2, 0.3, 0.4),
"transitions": PackedFloat32Array(1, 1, 1, 1),
"update": 1,
"values": [0, 1, 2, 3]
}
tracks/2/type = "method"
tracks/2/imported = false
tracks/2/enabled = true
tracks/2/path = NodePath("..")
tracks/2/interp = 1
tracks/2/loop_wrap = true
tracks/2/keys = {
"times": PackedFloat32Array(0.6),
"transitions": PackedFloat32Array(1),
"values": [{
"args": [],
"method": &"queue_free"
}]
}
tracks/3/type = "value"
tracks/3/imported = false
tracks/3/enabled = true
tracks/3/path = NodePath("../Hitbox/CollisionShape2D:disabled")
tracks/3/interp = 1
tracks/3/loop_wrap = true
tracks/3/keys = {
"times": PackedFloat32Array(0),
"transitions": PackedFloat32Array(1),
"update": 1,
"values": [true]
}

[sub_resource type="Animation" id="Animation_gkul1"]
resource_name = "fly"
length = 0.4
loop_mode = 1
tracks/0/type = "value"
tracks/0/imported = false
tracks/0/enabled = true
tracks/0/path = NodePath("../AnimatedSprite2D:animation")
tracks/0/interp = 1
tracks/0/loop_wrap = true
tracks/0/keys = {
"times": PackedFloat32Array(0),
"transitions": PackedFloat32Array(1),
"update": 1,
"values": [&"default"]
}
tracks/1/type = "value"
tracks/1/imported = false
tracks/1/enabled = true
tracks/1/path = NodePath("../AnimatedSprite2D:frame")
tracks/1/interp = 1
tracks/1/loop_wrap = true
tracks/1/keys = {
"times": PackedFloat32Array(0, 0.1, 0.2, 0.3),
"transitions": PackedFloat32Array(1, 1, 1, 1),
"update": 1,
"values": [0, 1, 2, 3]
}
tracks/2/type = "value"
tracks/2/imported = false
tracks/2/enabled = true
tracks/2/path = NodePath("../Hitbox/CollisionShape2D:disabled")
tracks/2/interp = 1
tracks/2/loop_wrap = true
tracks/2/keys = {
"times": PackedFloat32Array(0),
"transitions": PackedFloat32Array(1),
"update": 1,
"values": [false]
}

[sub_resource type="Animation" id="Animation_0x633"]
resource_name = "hurt"
length = 0.75
step = 0.05
tracks/0/type = "value"
tracks/0/imported = false
tracks/0/enabled = true
tracks/0/path = NodePath("../AnimatedSprite2D:animation")
tracks/0/interp = 1
tracks/0/loop_wrap = true
tracks/0/keys = {
"times": PackedFloat32Array(0),
"transitions": PackedFloat32Array(1),
"update": 1,
"values": [&"default"]
}
tracks/1/type = "value"
tracks/1/imported = false
tracks/1/enabled = true
tracks/1/path = NodePath("../AnimatedSprite2D:frame")
tracks/1/interp = 1
tracks/1/loop_wrap = true
tracks/1/keys = {
"times": PackedFloat32Array(0),
"transitions": PackedFloat32Array(1),
"update": 1,
"values": [3]
}
tracks/2/type = "value"
tracks/2/imported = false
tracks/2/enabled = true
tracks/2/path = NodePath("../AnimatedSprite2D:self_modulate")
tracks/2/interp = 1
tracks/2/loop_wrap = true
tracks/2/keys = {
"times": PackedFloat32Array(0, 0.1, 0.2, 0.3),
"transitions": PackedFloat32Array(1, 1, 1, 1),
"update": 0,
"values": [Color(100, 100, 100, 1), Color(1, 1, 1, 1), Color(100, 100, 100, 1), Color(1, 1, 1, 1)]
}
tracks/3/type = "value"
tracks/3/imported = false
tracks/3/enabled = true
tracks/3/path = NodePath("../Hitbox/CollisionShape2D:disabled")
tracks/3/interp = 1
tracks/3/loop_wrap = true
tracks/3/keys = {
"times": PackedFloat32Array(0, 0.75),
"transitions": PackedFloat32Array(1, 1),
"update": 1,
"values": [true, false]
}

[sub_resource type="AnimationLibrary" id="AnimationLibrary_6hasu"]
_data = {
"RESET": SubResource("Animation_u3ca8"),
"dead": SubResource("Animation_rkrji"),
"fly": SubResource("Animation_gkul1"),
"hurt": SubResource("Animation_0x633")
}

[node name="FlyingCreature" instance=ExtResource("1_yocom")]
z_index = 1
texture_filter = 1
script = ExtResource("2_i12vf")
accerelation = 5

[node name="FiniteStateMachine" parent="." index="0"]
script = ExtResource("3_n3eyt")

[node name="AnimatedSprite2D" parent="." index="1"]
sprite_frames = SubResource("SpriteFrames_o8g5r")
animation = &"dead"
frame = 1

[node name="CollisionShape2D" parent="." index="2"]
shape = SubResource("CircleShape2D_two0g")
debug_color = Color(0, 0.6, 0.701961, 0.419608)

[node name="Hitbox" type="Area2D" parent="." index="3"]
collision_layer = 0
collision_mask = 2
script = ExtResource("6_8kdxb")

[node name="CollisionShape2D" type="CollisionShape2D" parent="Hitbox" index="0"]
shape = SubResource("CircleShape2D_3k4my")
disabled = true
debug_color = Color(1, 0, 0.141176, 0.419608)

[node name="AnimationPlayer" parent="." index="4"]
libraries = {
"": SubResource("AnimationLibrary_6hasu")
}

[node name="PathTimer" parent="." index="5"]
wait_time = 1.0
